[
  {
    "type": "gold",
    "logo": "/assets/images/biyoma.png",
    "banner": "/assets/images/banner02.jpg",
    "slug": "puma"
  },
  {
    "type": "silver",
    "logo": "/assets/images/debunk.png",
    "banner": "/assets/images/banner04.jpg",
    "slug": "test-vendor"
  },
  {
    "type": "bronze",
    "logo": "/assets/images/funn.png",
    "banner": "/assets/images/banner06.jpg",
    "slug": "dolphin-miles"
  }
]
