<svg width="31" height="29" viewBox="0 0 31 29" fill="none" xmlns="http://www.w3.org/2000/svg">
<rect width="31" height="29" rx="4" fill="#adb9c7"/>
<path d="M8.5 9.7H10.0556M10.0556 9.7H22.5M10.0556 9.7V20.9C10.0556 21.3243 10.2194 21.7313 10.5112 22.0314C10.8029 22.3314 11.1986 22.5 11.6111 22.5H19.3889C19.8014 22.5 20.1971 22.3314 20.4888 22.0314C20.7806 21.7313 20.9444 21.3243 20.9444 20.9V9.7H10.0556ZM12.3889 9.7V8.1C12.3889 7.67565 12.5528 7.26869 12.8445 6.96863C13.1362 6.66857 13.5319 6.5 13.9444 6.5H17.0556C17.4681 6.5 17.8638 6.66857 18.1555 6.96863C18.4472 7.26869 18.6111 7.67565 18.6111 8.1V9.7M13.9444 13.7V18.5M17.0556 13.7V18.5" stroke="#3a4468" stroke-width="1.5" stroke-linecap="round" stroke-linejoin="round"/>
</svg>
