<svg width="40" height="40" viewBox="0 0 40 40" fill="none" xmlns="http://www.w3.org/2000/svg">
<circle cx="20" cy="20" r="19" fill="#FFECEC" />
<path d="M25 28V26C25 24.9391 24.5786 23.9217 23.8284 23.1716C23.0783 22.4214 22.0609 22 21 22H13C11.9391 22 10.9217 22.4214 10.1716 23.1716C9.42143 23.9217 9 24.9391 9 26V28" stroke="#D73939" stroke-width="2" stroke-linecap="round" stroke-linejoin="round"/>
<path d="M17 18C19.2091 18 21 16.2091 21 14C21 11.7909 19.2091 10 17 10C14.7909 10 13 11.7909 13 14C13 16.2091 14.7909 18 17 18Z" stroke="#D73939" stroke-width="2" stroke-linecap="round" stroke-linejoin="round"/>
<path d="M31 28V26C30.9993 25.1137 30.7044 24.2528 30.1614 23.5523C29.6184 22.8519 28.8581 22.3516 28 22.13" stroke="#D73939" stroke-width="2" stroke-linecap="round" stroke-linejoin="round"/>
<path d="M24 10.13C24.8604 10.3503 25.623 10.8507 26.1676 11.5523C26.7122 12.2539 27.0078 13.1168 27.0078 14.005C27.0078 14.8932 26.7122 15.7561 26.1676 16.4577C25.623 17.1593 24.8604 17.6597 24 17.88" stroke="#D73939" stroke-width="2" stroke-linecap="round" stroke-linejoin="round"/>
</svg>
