<svg width="16" height="17" viewBox="0 0 16 17" fill="none" xmlns="http://www.w3.org/2000/svg">
<path d="M12.5969 4.47949C13.5058 5.42345 14.1246 6.62601 14.3753 7.93513C14.6259 9.24425 14.497 10.6011 14.005 11.8342C13.513 13.0673 12.6799 14.1212 11.611 14.8627C10.5421 15.6042 9.28549 16 8 16C6.71451 16 5.45789 15.6042 4.38902 14.8627C3.32014 14.1212 2.48702 13.0673 1.99499 11.8342C1.50296 10.6011 1.37411 9.24425 1.62474 7.93513C1.87538 6.62601 2.49423 5.42345 3.40306 4.47949M8.00361 1V8.4989" stroke="#3a4468" stroke-width="2" stroke-linecap="round" stroke-linejoin="round"/>
</svg>
