<svg width="38" height="48" viewBox="0 0 38 48" fill="none" xmlns="http://www.w3.org/2000/svg">
<path d="M37.6663 47.3333H0.333008V42.6666C0.333008 37.5333 8.73301 33.3333 18.9997 33.3333C29.2663 33.3333 37.6663 37.5333 37.6663 42.6666V47.3333ZM9.66634 17H28.333V19.3333C28.333 24.4666 24.133 28.6666 18.9997 28.6666C13.8663 28.6666 9.66634 24.4666 9.66634 19.3333V17ZM35.333 5.33331C33.933 5.33331 32.9997 6.26664 32.9997 7.66664V9.99998H29.4997L26.233 2.99998C25.9997 2.53331 25.7663 2.06664 25.2997 1.83331C24.133 0.666642 22.2663 0.433309 20.633 1.13331L18.9997 1.59998L17.3663 0.899975C15.733 0.199975 13.8663 0.433309 12.6997 1.59998C12.233 2.06664 11.9997 2.53331 11.7663 2.99998L8.49967 9.99998H4.99967V7.66664C4.99967 6.26664 4.06634 5.33331 2.66634 5.33331C1.26634 5.33331 0.333008 6.26664 0.333008 7.66664V9.99998C0.333008 12.5666 2.43301 14.6666 4.99967 14.6666H32.9997C35.5663 14.6666 37.6663 12.5666 37.6663 9.99998V7.66664C37.6663 6.49998 36.733 5.33331 35.333 5.33331Z" fill="#D73939"/>
</svg>
